…
    ## Warning: Expected 5 pieces. Additional pieces discarded in 42 rows [1, 2, 3, 4,
    ## 5, 6, 7, 8, 9, 10, 11, 12, 13, 14, 15, 16, 17, 18, 19, 20, ...].

    ## Warning in mask$eval_all_mutate(quo): NAs introduced by coercion

    ## Warning: Expected 5 pieces. Additional pieces discarded in 42 rows [1, 2, 3, 4,
    ## 5, 6, 7, 8, 9, 10, 11, 12, 13, 14, 15, 16, 17, 18, 19, 20, ...].

    ## Warning in mask$eval_all_mutate(quo): NAs introduced by coercion

``` r
 estimates
```

    ## # A tibble: 21 × 5
    ##    cell_type `.median_(Inte…` .median_factor_… `.sd_(Intercep…` .sd_factor_of_i…
    ##    <fct>                <dbl>            <dbl>            <dbl>            <dbl>
    ##  1 endothel…           -0.717          -0.248             0.406            0.456
    ##  2 epitheli…           -0.582          -0.313             0.418            0.480
    ##  3 fibrobla…           -0.677          -0.292             0.458            0.486
    ##  4 mast_cell           -0.804          -0.299             0.485            0.444
    ##  5 b_memory             2.04            2.30              0.396            0.397
    ##  6 b_naive              5.93           -0.215             0.230            0.296
    ##  7 eosinoph…            0.284           0.705             0.486            0.504
    ##  8 monocyte            -0.321          -0.0574            0.447            0.482
    ##  9 neutroph…           -0.165           0.130             0.482            0.556
    ## 10 nk_resti…           -0.391          -0.0737            0.431            0.486
    ## # … with 11 more rows
